{
  "manifestDescription": {
    "message": "Envoyer des pouets sur Twitter depuis Mastodon.",
    "description": "Extension description in the manifest file"
  },
  "postOnTheBirdSite": {
    "message": "Poster aussi sur l’oiseau bleu",
    "description": "Tooltip displayed on the birdsite button"
  },
  "postAs": {
    "message": "Poster sur @$USERNAME$",
    "description": "The status label when crossposting is selected",
    "placeholders": {
      "username" : {
        "content" : "$1",
        "example" : "twitterhandle"
      }
    }
  },
  "authenticating": {
    "message": "Connexion en cours",
    "description": "Displayed during the authentication process"
  },
  "posting": {
    "message": "En cours d’envoi",
    "description": "Displayed when the tweet is being sent"
  },
  "sent": {
    "message": "Envoyé ✓",
    "description": "Displayed when the tweet has been sent successfully"
  },
  "anErrorOccured": {
    "message": "Une erreur s’est produite",
    "description": "Displayed when an error occurs during authentication or posting"
  },
  "clickToLogout": {
    "message": "Cliquez pour déconnecter ce compte.",
    "description": "Tooltip displayed on the username link"
  },
  "confirmLogout": {
    "message": "Voulez-vous déconnecter le compte @$USERNAME$ ?",
    "description": "Confirmation message before logging out",
    "placeholders": {
      "username" : {
        "content" : "$1",
        "example" : "twitterhandle"
      }
    }
  }
}
